…
> **Interpretation.** McNemar's test uses only the *discordant* pairs (15 vs 20 here). The conditional OR is 1.33 with p = 0.50, so there is no significant difference in the positivity rates of the two paired tests — mammography and ultrasound detect at similar rates in this cohort.

#### `kk_confusion_matrix(x, ...)`

Computes a **full panel of classifier metrics** with confidence intervals (sensitivity, specificity, PPV, NPV, accuracy, F1, MCC, likelihood ratios, and more) directly from TP/FP/FN/TN counts. Optional bootstrap CIs via `boot = TRUE`. Supersedes the deprecated `confusion_metrics_ci()`.

*   **Clinical Example**: Full performance characterization of a screening test with 85 true positives, 10 false positives, 15 false negatives, and 890 true negatives.

``` r
kk_confusion_matrix(c(tp = 85, fp = 10, fn = 15, tn = 890))
#> # A tibble: 21 × 7
#>   metric            estimate   lower  upper ci_level ci_method                    note 
#>   <chr>                <dbl>   <dbl>  <dbl>    <dbl> <chr>                        <chr>
#> 1 prevalence          0.1    0.0821  0.120      0.95 exact binomial               <NA> 
#> 2 accuracy            0.975  0.963   0.984      0.95 exact binomial               <NA> 
#> 3 sensitivity (TPR)   0.85   0.765   0.914      0.95 exact binomial               <NA> 
#> 4 specificity (TNR)   0.989  0.980   0.995      0.95 exact binomial               <NA> 
#> 5 PPV (precision)     0.895  0.815   0.948      0.95 exact binomial               <NA> 
#> 6 NPV                 0.983  0.973   0.991      0.95 exact binomial               <NA> 
#> 7 FPR                 0.0111 0.00534 0.0203     0.95 complement of specificity CI <NA> 
#> 8 FNR                 0.15   0.0865  0.235      0.95 complement of sensitivity CI <NA> 
#> # ℹ 13 more rows
```

> **Interpretation.** From the four cell counts the function derives 21 metrics with exact CIs. Sensitivity is 0.85 and specificity 0.99; despite the high specificity, the 10% prevalence still shapes the predictive values (PPV 0.90, NPV 0.98). Scroll the full tibble for likelihood ratios and MCC, which summarise performance in a single prevalence-independent number.

#### `diagnostic_summary(data, truth, test)`

Produces a tidy summary of diagnostic metrics from **raw patient-level data**, applying a cutoff to numeric test results automatically.


``` r
df_diag <- data.frame(truth = c(1, 0, 1, 0, 1, 0), test = c(1, 0, 0, 1, 1, 0))
diagnostic_summary(df_diag, truth, test)
#> # A tibble: 21 × 7
#>   metric            estimate   lower upper ci_level ci_method                    note 
#>   <chr>                <dbl>   <dbl> <dbl>    <dbl> <chr>                        <chr>
#> 1 prevalence           0.5   0.118   0.882     0.95 exact binomial               <NA> 
#> 2 accuracy             0.667 0.223   0.957     0.95 exact binomial               <NA> 
#> 3 sensitivity (TPR)    0.667 0.0943  0.992     0.95 exact binomial               <NA> 
#> 4 specificity (TNR)    0.667 0.0943  0.992     0.95 exact binomial               <NA> 
#> 5 PPV (precision)      0.667 0.0943  0.992     0.95 exact binomial               <NA> 
#> 6 NPV                  0.667 0.0943  0.992     0.95 exact binomial               <NA> 
#> 7 FPR                  0.333 0.00840 0.906     0.95 complement of specificity CI <NA> 
#> 8 FNR                  0.333 0.00840 0.906     0.95 complement of sensitivity CI <NA> 
#> # ℹ 13 more rows
```
…
### 9. Time-Series Analysis

#### `kk_time_series(data, value_col, date_col)` / `time_series_analysis()`

Analyzes a time series end-to-end: decomposition, stationarity tests (ADF/KPSS), autocorrelation, and automatic ARIMA modelling, with optional grouping.

*   **Epidemiological Example**: Characterising a monthly surveillance count series and fitting a forecasting model.

``` r
date <- seq(as.Date("2020-01-01"), by = "month", length.out = 24)
value <- 100 + cumsum(rnorm(24, 2, 5))
df_ts <- data.frame(date = date, value = value)
kk_time_series(df_ts)
#> # A tibble: 48 × 2
#>   Metric             Value
#>   <chr>              <dbl>
#> 1 Length of Series    24  
#> 2 Mean               129. 
#> 3 Median             132. 
#> 4 Standard Deviation  15.5
#> 5 Variance           240. 
#> 6 Min                 98.8
#> 7 Max                154. 
#> 8 Range               55.6
#> # ℹ 40 more rows
```
…
